{
	"id": "1137xxf9823cslasd23",
	"firstName": "John",
	"lastName": "Cena",
	"email": "youcantseeme@gmail.com",
	"password": "johncena123",
	"isAdmin": false,
	"mobileNumber": "+19123232422",
	"enrollments": ["301ccbe","302ccbc"],
	"dataTimeRegistered": "2020-05-06-15T15:00:00:XYZ"
}
{
	"id": "0000xxxx",
	"firstName": "Rey",
	"lastName": "Mysterio",
	"email": "619move@gmail.com",
	"password": "rey123",
	"isAdmin": true,
	"mobileNumber": "+649123123123",
	"enrollments": [],
	"dataTimeRegistered": "2019-05-06-15T15:00:00:XYZ"
}