{
	"productId": "bn001",
	"name": "Banana",
	"description": "Dole-certified lakatan",
	"price": 20,
	"stocks": 1000,
	"isActive?": true,
	"SKU": 2500
}
{
	"productId": "ap001",
	"name": "Apple",
	"description": "Dole-certified red apple",
	"price": 35,
	"stocks": 0,
	"isActive?": false,
	"SKU": 0
}
